5 Organização – Introdução à Ciência de Dados em R
…
De maneira geral, a tibble apresenta as mesmas propriedades de seu análogo original, apresentando algumas melhorias e ajustes que facilitam o nosso trabalho. Dessa forma, os conceitos que vimos na Seção 3.10 e Seção 3.12 são válidos para a tibble.

Apesar da tibble também ser um data frame, neste material, utilizaremos o termo data frame apenas para nos referirmos à versão tradicional.

5.2.1 Converter em Tibble

Para converter data frames em tibble, utilizamos a função as_tibble(). Como exemplo, transformaremos o conjunto de dados nativo do R iris para o formato tibble.

class(iris)
#> [1] "data.frame"

iris_tibble <- as_tibble(iris)
iris_tibble
#> # A tibble: 150 × 5
#>    Sepal.Length Sepal.Width Petal.Length Petal.Width Species
#>           <dbl>       <dbl>        <dbl>       <dbl> <fct>  
#>  1          5.1         3.5          1.4         0.2 setosa 
#>  2          4.9         3            1.4         0.2 setosa 
#>  3          4.7         3.2          1.3         0.2 setosa 
#>  4          4.6         3.1          1.5         0.2 setosa 
#>  5          5           3.6          1.4         0.2 setosa 
#>  6          5.4         3.9          1.7         0.4 setosa 
#>  7          4.6         3.4          1.4         0.3 setosa 
#>  8          5           3.4          1.5         0.2 setosa 
#>  9          4.4         2.9          1.4         0.2 setosa 
#> 10          4.9         3.1          1.5         0.1 setosa 
#> # ℹ 140 more rows
…
