7 Funções essenciais – Introdução à Ciência de Dados em R
…
Apesar de ambos os operadores atuarem de modo semelhante para os casos mais simples, o |> funciona sem carregar o tidyverse, pois faz parte do pacote base do R, tornando-o mais simples e independente de qualquer pacote. Esta é a principal vantagem desse operador em relação ao do pacote magrittr.

Para entender mais sobre as mudanças entre os operadores, recomendo o seguinte texto: https://www.tidyverse.org/blog/2023/04/base-vs-magrittr-pipe/.

7.3 Colunas

Existem quatro principais funções relacionadas a manipulação de colunas (ou variáveis): select(), rename(), relocate() e mutate(). A seguir, trataremos de cada uma delas.

7.3.1 Selecionar

A primeira função que apresentaremos é a select(), que seleciona as variáveis de um data frame. Primeiramente, vamos importar e analisar os dados do arquivo prod_graos.csv.

graos <- readr::read_csv("dados/prod-graos.csv")
graos
#> # A tibble: 2,842 × 12
#>    domain_code domain    area_code_fao area  item_code_fao item  year_code  year
#>    <chr>       <chr>             <dbl> <chr>         <dbl> <chr>     <dbl> <dbl>
#>  1 QCL         Crops an…             9 Arge…            56 Maize      1961  1961
#>  2 QCL         Crops an…             9 Arge…            56 Maize      1962  1962
#>  3 QCL         Crops an…             9 Arge…            56 Maize      1963  1963
#>  4 QCL         Crops an…             9 Arge…            56 Maize      1964  1964
#>  5 QCL         Crops an…             9 Arge…            56 Maize      1965  1965
#>  6 QCL         Crops an…             9 Arge…            56 Maize      1966  1966
#>  7 QCL         Crops an…             9 Arge…            56 Maize      1967  1967
#>  8 QCL         Crops an…             9 Arge…            56 Maize      1968  1968
#>  9 QCL         Crops an…             9 Arge…            56 Maize      1969  1969
#> 10 QCL         Crops an…             9 Arge…            56 Maize      1970  1970
#> # ℹ 2,832 more rows
#> # ℹ 4 more variables: flag <chr>, flag_description <chr>, area_harvested <dbl>,
#> #   production <dbl>
…
area: traz o nome dos 13 países da América do Sul;

item: tipo de cultura - milho (maize), arroz (Rice, paddy), soja (Soybeans) e trigo (Wheat);

year: ano da observação;

area_harvested: traz os valores de área colhida em hectares;

production: traz os valores de produção em toneladas.

Para selecionar as colunas de interesse, utilizamos a função select().

select(.data = graos, area, item, year, area_harvested, production)
#> # A tibble: 2,842 × 5
#>    area      item   year area_harvested production
#>    <chr>     <chr> <dbl>          <dbl>      <dbl>
#>  1 Argentina Maize  1961        2744400    4850000
#>  2 Argentina Maize  1962        2756670    5220000
#>  3 Argentina Maize  1963        2645400    4360000
#>  4 Argentina Maize  1964        2970500    5350000
#>  5 Argentina Maize  1965        3062300    5140000
#>  6 Argentina Maize  1966        3274500    7040000
#>  7 Argentina Maize  1967        3450500    8510000
#>  8 Argentina Maize  1968        3377700    6560000
#>  9 Argentina Maize  1969        3556000    6860000
#> 10 Argentina Maize  1970        4017330    9360000
#> # ℹ 2,832 more rows

Como primeiro argumento, indicamos o objeto a ser manipulado e, em seguida, as colunas a serem selecionadas.

Utilizando o operador pipe, prosseguimos da seguinte maneira.

graos |> select(area, item, year, area_harvested, production)
#> # A tibble: 2,842 × 5
#>    area      item   year area_harvested production
#>    <chr>     <chr> <dbl>          <dbl>      <dbl>
#>  1 Argentina Maize  1961        2744400    4850000
#>  2 Argentina Maize  1962        2756670    5220000
#>  3 Argentina Maize  1963        2645400    4360000
#>  4 Argentina Maize  1964        2970500    5350000
#>  5 Argentina Maize  1965        3062300    5140000
#>  6 Argentina Maize  1966        3274500    7040000
#>  7 Argentina Maize  1967        3450500    8510000
#>  8 Argentina Maize  1968        3377700    6560000
#>  9 Argentina Maize  1969        3556000    6860000
#> 10 Argentina Maize  1970        4017330    9360000
#> # ℹ 2,832 more rows

Primeiro, declaramos qual o conjunto de dados iremos utilizar, seguido da função select() com as colunas que desejamos selecionar.

Podemos selecionar várias colunas consecutivas com o operador :. Basta informar os nomes ou as posições da primeira e da última coluna que se deseja selecionar.

graos |> select(area:year)
#> # A tibble: 2,842 × 5
#>    area      item_code_fao item  year_code  year
#>    <chr>             <dbl> <chr>     <dbl> <dbl>
#>  1 Argentina            56 Maize      1961  1961
#>  2 Argentina            56 Maize      1962  1962
#>  3 Argentina            56 Maize      1963  1963
#>  4 Argentina            56 Maize      1964  1964
#>  5 Argentina            56 Maize      1965  1965
#>  6 Argentina            56 Maize      1966  1966
#>  7 Argentina            56 Maize      1967  1967
#>  8 Argentina            56 Maize      1968  1968
#>  9 Argentina            56 Maize      1969  1969
#> 10 Argentina            56 Maize      1970  1970
#> # ℹ 2,832 more rows

graos |> select(4:8)
#> # A tibble: 2,842 × 5
#>    area      item_code_fao item  year_code  year
#>    <chr>             <dbl> <chr>     <dbl> <dbl>
#>  1 Argentina            56 Maize      1961  1961
#>  2 Argentina            56 Maize      1962  1962
#>  3 Argentina            56 Maize      1963  1963
#>  4 Argentina            56 Maize      1964  1964
#>  5 Argentina            56 Maize      1965  1965
#>  6 Argentina            56 Maize      1966  1966
#>  7 Argentina            56 Maize      1967  1967
#>  8 Argentina            56 Maize      1968  1968
#>  9 Argentina            56 Maize      1969  1969
#> 10 Argentina            56 Maize      1970  1970
#> # ℹ 2,832 more rows

Em conjunto com a select(), podemos utilizar outras funções que nos auxiliam na seleção de colunas.

where(): seleciona as colunas que possuem determinada classe.

graos |> select(where(is.numeric))
#> # A tibble: 2,842 × 6
#>    area_code_fao item_code_fao year_code  year area_harvested production
#>            <dbl>         <dbl>     <dbl> <dbl>          <dbl>      <dbl>
#>  1             9            56      1961  1961        2744400    4850000
#>  2             9            56      1962  1962        2756670    5220000
#>  3             9            56      1963  1963        2645400    4360000
#>  4             9            56      1964  1964        2970500    5350000
#>  5             9            56      1965  1965        3062300    5140000
#>  6             9            56      1966  1966        3274500    7040000
#>  7             9            56      1967  1967        3450500    8510000
#>  8             9            56      1968  1968        3377700    6560000
#>  9             9            56      1969  1969        3556000    6860000
#> 10             9            56      1970  1970        4017330    9360000
#> # ℹ 2,832 more rows

starts_with(): seleciona colunas que começam com um texto padrão.

graos |> select(starts_with("year"))
#> # A tibble: 2,842 × 2
#>    year_code  year
#>        <dbl> <dbl>
#>  1      1961  1961
#>  2      1962  1962
#>  3      1963  1963
#>  4      1964  1964
#>  5      1965  1965
#>  6      1966  1966
#>  7      1967  1967
#>  8      1968  1968
#>  9      1969  1969
#> 10      1970  1970
#> # ℹ 2,832 more rows

ends_with(): seleciona colunas que terminam com um texto padrão.

graos |> select(ends_with("code"))
#> # A tibble: 2,842 × 2
#>    domain_code year_code
#>    <chr>           <dbl>
#>  1 QCL              1961
#>  2 QCL              1962
#>  3 QCL              1963
#>  4 QCL              1964
#>  5 QCL              1965
#>  6 QCL              1966
#>  7 QCL              1967
#>  8 QCL              1968
#>  9 QCL              1969
#> 10 QCL              1970
#> # ℹ 2,832 more rows

contains(): seleciona colunas que possuem um texto padrão.

graos |> select(contains("code"))
#> # A tibble: 2,842 × 4
#>    domain_code area_code_fao item_code_fao year_code
#>    <chr>               <dbl>         <dbl>     <dbl>
#>  1 QCL                     9            56      1961
#>  2 QCL                     9            56      1962
#>  3 QCL                     9            56      1963
#>  4 QCL                     9            56      1964
#>  5 QCL                     9            56      1965
#>  6 QCL                     9            56      1966
#>  7 QCL                     9            56      1967
#>  8 QCL                     9            56      1968
#>  9 QCL                     9            56      1969
#> 10 QCL                     9            56      1970
#> # ℹ 2,832 more rows

Também podemos retirar colunas inserindo o operador - antes do nome da variável ou das funções auxiliares.

graos |> select(-contains("code"), -contains("flag"), -domain)
#> # A tibble: 2,842 × 5
#>    area      item   year area_harvested production
#>    <chr>     <chr> <dbl>          <dbl>      <dbl>
#>  1 Argentina Maize  1961        2744400    4850000
#>  2 Argentina Maize  1962        2756670    5220000
#>  3 Argentina Maize  1963        2645400    4360000
#>  4 Argentina Maize  1964        2970500    5350000
#>  5 Argentina Maize  1965        3062300    5140000
#>  6 Argentina Maize  1966        3274500    7040000
#>  7 Argentina Maize  1967        3450500    8510000
#>  8 Argentina Maize  1968        3377700    6560000
#>  9 Argentina Maize  1969        3556000    6860000
#> 10 Argentina Maize  1970        4017330    9360000
#> # ℹ 2,832 more rows

Com a função select(), também podemos renomear as variáveis selecionadas. Como primeiro argumento, inserimos o novo nome, seguido do sinal de = e o nome original da variável.

graos |> 
  select(
    pais = area,
    cultura = item, 
    ano = year, 
    colheita = area_harvested, 
    producao = production
  )
#> # A tibble: 2,842 × 5
#>    pais      cultura   ano colheita producao
#>    <chr>     <chr>   <dbl>    <dbl>    <dbl>
#>  1 Argentina Maize    1961  2744400  4850000
#>  2 Argentina Maize    1962  2756670  5220000
#>  3 Argentina Maize    1963  2645400  4360000
#>  4 Argentina Maize    1964  2970500  5350000
#>  5 Argentina Maize    1965  3062300  5140000
#>  6 Argentina Maize    1966  3274500  7040000
#>  7 Argentina Maize    1967  3450500  8510000
#>  8 Argentina Maize    1968  3377700  6560000
#>  9 Argentina Maize    1969  3556000  6860000
#> 10 Argentina Maize    1970  4017330  9360000
#> # ℹ 2,832 more rows
…
Podemos utilizar as funções select() e rename() de forma integrada.

graos_selecionado <- graos |> 
  select(area, item, year, area_harvested, production) |> 
  rename(
    pais = area,
    cultura = item, 
    ano = year, 
    colheita = area_harvested, 
    producao = production
  )

graos_selecionado
#> # A tibble: 2,842 × 5
#>    pais      cultura   ano colheita producao
#>    <chr>     <chr>   <dbl>    <dbl>    <dbl>
#>  1 Argentina Maize    1961  2744400  4850000
#>  2 Argentina Maize    1962  2756670  5220000
#>  3 Argentina Maize    1963  2645400  4360000
#>  4 Argentina Maize    1964  2970500  5350000
#>  5 Argentina Maize    1965  3062300  5140000
#>  6 Argentina Maize    1966  3274500  7040000
#>  7 Argentina Maize    1967  3450500  8510000
#>  8 Argentina Maize    1968  3377700  6560000
#>  9 Argentina Maize    1969  3556000  6860000
#> 10 Argentina Maize    1970  4017330  9360000
#> # ℹ 2,832 more rows

Note que salvamos as alterações realizadas no objeto graos_selecionado. A seguir, utilizaremos este objeto para os demais exemplos.

7.3.3 Realocar

Utilizamos a função relocate() para mover as colunas de lugar.

graos_selecionado |> relocate(ano, pais, cultura, producao, colheita)
#> # A tibble: 2,842 × 5
#>      ano pais      cultura producao colheita
#>    <dbl> <chr>     <chr>      <dbl>    <dbl>
#>  1  1961 Argentina Maize    4850000  2744400
#>  2  1962 Argentina Maize    5220000  2756670
#>  3  1963 Argentina Maize    4360000  2645400
#>  4  1964 Argentina Maize    5350000  2970500
#>  5  1965 Argentina Maize    5140000  3062300
#>  6  1966 Argentina Maize    7040000  3274500
#>  7  1967 Argentina Maize    8510000  3450500
#>  8  1968 Argentina Maize    6560000  3377700
#>  9  1969 Argentina Maize    6860000  3556000
#> 10  1970 Argentina Maize    9360000  4017330
#> # ℹ 2,832 more rows

É possível selecionar apenas algumas colunas (não necessariamente todas as variáveis do conjunto de dados) para serem arranjadas. Por padrão, as variáveis escolhidas são realocadas para o início do conjunto de dados.

graos_selecionado |> relocate(ano, pais)
#> # A tibble: 2,842 × 5
#>      ano pais      cultura colheita producao
#>    <dbl> <chr>     <chr>      <dbl>    <dbl>
#>  1  1961 Argentina Maize    2744400  4850000
#>  2  1962 Argentina Maize    2756670  5220000
#>  3  1963 Argentina Maize    2645400  4360000
#>  4  1964 Argentina Maize    2970500  5350000
#>  5  1965 Argentina Maize    3062300  5140000
#>  6  1966 Argentina Maize    3274500  7040000
#>  7  1967 Argentina Maize    3450500  8510000
#>  8  1968 Argentina Maize    3377700  6560000
#>  9  1969 Argentina Maize    3556000  6860000
#> 10  1970 Argentina Maize    4017330  9360000
#> # ℹ 2,832 more rows

Podemos especificar para onde as colunas serão movidas com os argumentos .before = e .after = (antes ou depois de determinada coluna, respectivamente).

graos_selecionado |> relocate(ano, cultura, .before = pais)
#> # A tibble: 2,842 × 5
#>      ano cultura pais      colheita producao
#>    <dbl> <chr>   <chr>        <dbl>    <dbl>
#>  1  1961 Maize   Argentina  2744400  4850000
#>  2  1962 Maize   Argentina  2756670  5220000
#>  3  1963 Maize   Argentina  2645400  4360000
#>  4  1964 Maize   Argentina  2970500  5350000
#>  5  1965 Maize   Argentina  3062300  5140000
#>  6  1966 Maize   Argentina  3274500  7040000
#>  7  1967 Maize   Argentina  3450500  8510000
#>  8  1968 Maize   Argentina  3377700  6560000
#>  9  1969 Maize   Argentina  3556000  6860000
#> 10  1970 Maize   Argentina  4017330  9360000
#> # ℹ 2,832 more rows

graos_selecionado |> relocate(ano, cultura, .after = pais)
#> # A tibble: 2,842 × 5
#>    pais        ano cultura colheita producao
#>    <chr>     <dbl> <chr>      <dbl>    <dbl>
#>  1 Argentina  1961 Maize    2744400  4850000
#>  2 Argentina  1962 Maize    2756670  5220000
#>  3 Argentina  1963 Maize    2645400  4360000
#>  4 Argentina  1964 Maize    2970500  5350000
#>  5 Argentina  1965 Maize    3062300  5140000
#>  6 Argentina  1966 Maize    3274500  7040000
#>  7 Argentina  1967 Maize    3450500  8510000
#>  8 Argentina  1968 Maize    3377700  6560000
#>  9 Argentina  1969 Maize    3556000  6860000
#> 10 Argentina  1970 Maize    4017330  9360000
#> # ℹ 2,832 more rows

7.3.4 Modificar e criar

Para modificar ou criar novas variáveis, utilizamos a função mutate().

graos_selecionado |> mutate(producao = producao * 1000)
#> # A tibble: 2,842 × 5
#>    pais      cultura   ano colheita   producao
#>    <chr>     <chr>   <dbl>    <dbl>      <dbl>
#>  1 Argentina Maize    1961  2744400 4850000000
#>  2 Argentina Maize    1962  2756670 5220000000
#>  3 Argentina Maize    1963  2645400 4360000000
#>  4 Argentina Maize    1964  2970500 5350000000
#>  5 Argentina Maize    1965  3062300 5140000000
#>  6 Argentina Maize    1966  3274500 7040000000
#>  7 Argentina Maize    1967  3450500 8510000000
#>  8 Argentina Maize    1968  3377700 6560000000
#>  9 Argentina Maize    1969  3556000 6860000000
#> 10 Argentina Maize    1970  4017330 9360000000
#> # ℹ 2,832 more rows

No exemplo anterior, transformamos os valores da coluna producao, em toneladas, para quilogramas. Contudo, também podemos manter a coluna original e criar uma nova. Basta designar um novo nome à nova variável.

graos_selecionado |> mutate(producao_kg = producao * 1000)
#> # A tibble: 2,842 × 6
#>    pais      cultura   ano colheita producao producao_kg
#>    <chr>     <chr>   <dbl>    <dbl>    <dbl>       <dbl>
#>  1 Argentina Maize    1961  2744400  4850000  4850000000
#>  2 Argentina Maize    1962  2756670  5220000  5220000000
#>  3 Argentina Maize    1963  2645400  4360000  4360000000
#>  4 Argentina Maize    1964  2970500  5350000  5350000000
#>  5 Argentina Maize    1965  3062300  5140000  5140000000
#>  6 Argentina Maize    1966  3274500  7040000  7040000000
#>  7 Argentina Maize    1967  3450500  8510000  8510000000
#>  8 Argentina Maize    1968  3377700  6560000  6560000000
#>  9 Argentina Maize    1969  3556000  6860000  6860000000
#> 10 Argentina Maize    1970  4017330  9360000  9360000000
#> # ℹ 2,832 more rows

7.4 Linhas

Para realizar manipulações de linhas (ou observações) de um conjunto de dados, utilizamos três principais funções: filter(), arrange() e distinct(). Discutiremos sobre cada uma a seguir.

7.4.1 Filtrar

Na Seção 3.8, tratamos sobre a lógica por trás da operação de filtragem. Nesta seção, apresentaremos a função filter(), que permite filtrar valores específicos em um conjunto de dados de forma simples e eficiente, utilizando operações lógicas para refinar a busca e extrair apenas as observações desejadas.

graos_selecionado |> filter(pais == "Chile")
#> # A tibble: 233 × 5
#>    pais  cultura   ano colheita producao
#>    <chr> <chr>   <dbl>    <dbl>    <dbl>
#>  1 Chile Maize    1961    83330   162810
#>  2 Chile Maize    1962    84560   180760
#>  3 Chile Maize    1963    84350   176020
#>  4 Chile Maize    1964    88160   241520
#>  5 Chile Maize    1965    87644   260000
#>  6 Chile Maize    1966    80700   285327
#>  7 Chile Maize    1967    92200   362200
#>  8 Chile Maize    1968    88540   320810
#>  9 Chile Maize    1969    58440   153792
#> 10 Chile Maize    1970    73860   239052
#> # ℹ 223 more rows
…
Com o operador & (“E” lógico), combinamos condições que devem ser todas verdadeiras ao mesmo tempo, ou seja, uma linha só será filtrada se todas as condições apresentadas forem atendidas simultaneamente. No exemplo, filtra-se somente as linhas em que a coluna pais contém os valores "Brazil", "Argentina" ou "Chile" E a coluna ano é 2010.

Por outro lado, o operador | (“OU” lógico) é usado para combinar condições onde basta que apenas uma delas seja verdadeira, ou seja, uma linha será selecionada se pelo menos uma das condições for atendida (uma condição OU a outra condição).

graos_selecionado |> filter(cultura == "Maize" | ano == 2010)
#> # A tibble: 816 × 5
#>    pais      cultura   ano colheita producao
#>    <chr>     <chr>   <dbl>    <dbl>    <dbl>
#>  1 Argentina Maize    1961  2744400  4850000
#>  2 Argentina Maize    1962  2756670  5220000
#>  3 Argentina Maize    1963  2645400  4360000
#>  4 Argentina Maize    1964  2970500  5350000
#>  5 Argentina Maize    1965  3062300  5140000
#>  6 Argentina Maize    1966  3274500  7040000
#>  7 Argentina Maize    1967  3450500  8510000
#>  8 Argentina Maize    1968  3377700  6560000
#>  9 Argentina Maize    1969  3556000  6860000
#> 10 Argentina Maize    1970  4017330  9360000
#> # ℹ 806 more rows
…
