11 Estatíticas – Introdução à Ciência de Dados em R
…
11  Estatíticas

11.1 Introdução

Neste capítulo, trataremos sobre alguns gráficos comuns na área da estatística, utilizando o pacote ggplot2.

library(ggplot2)

Para os exemplos, utilizaremos o mesmo conjunto de dados utilizados no Capítulo 9, presente no arquivo alunos.csv.

dados_alunos <- readr::read_csv("dados/alunos.csv")

dados_alunos
#> # A tibble: 64 × 7
#>    sexo  idade altura  peso horas_estudo media_ponderada futuro   
#>    <chr> <dbl>  <dbl> <dbl>        <dbl>           <dbl> <chr>    
#>  1 M        23   1.75    80            2             7.5 academico
#>  2 F        19   1.67    65            2             8.3 mercado  
#>  3 M        19   1.7     90            3             6.9 mercado  
#>  4 M        22   1.73    87            3             7.1 academico
#>  5 M        19   1.83    71            2             6.5 mercado  
#>  6 M        19   1.8     80            3             8.6 mercado  
#>  7 M        20   1.9     90            2             7.8 academico
#>  8 F        20   1.6     55            1             8   mercado  
#>  9 F        24   1.62    55            2             8.2 academico
#> 10 F        18   1.64    60            2             7.3 mercado  
#> # ℹ 54 more rows
…
11.5 Gráfico de barras com desvios padrão

Para adicionar desvios padrão ao gráfico de barras no ggplot2, usamos a função geom_errorbar(), que adiciona barras de erro representando a variação dos dados.

Para isso, utilizaremos os dados do data frame diamonds, conjunto de dados do próprio pacote ggplot2.

diamonds
#> # A tibble: 53,940 × 10
#>    carat cut       color clarity depth table price     x     y     z
#>    <dbl> <ord>     <ord> <ord>   <dbl> <dbl> <int> <dbl> <dbl> <dbl>
#>  1  0.23 Ideal     E     SI2      61.5    55   326  3.95  3.98  2.43
#>  2  0.21 Premium   E     SI1      59.8    61   326  3.89  3.84  2.31
#>  3  0.23 Good      E     VS1      56.9    65   327  4.05  4.07  2.31
#>  4  0.29 Premium   I     VS2      62.4    58   334  4.2   4.23  2.63
#>  5  0.31 Good      J     SI2      63.3    58   335  4.34  4.35  2.75
#>  6  0.24 Very Good J     VVS2     62.8    57   336  3.94  3.96  2.48
#>  7  0.24 Very Good I     VVS1     62.3    57   336  3.95  3.98  2.47
#>  8  0.26 Very Good H     SI1      61.9    55   337  4.07  4.11  2.53
#>  9  0.22 Fair      E     VS2      65.1    61   337  3.87  3.78  2.49
#> 10  0.23 Very Good H     VS1      59.4    61   338  4     4.05  2.39
#> # ℹ 53,930 more rows
…
