9 Gráficos – Introdução à Ciência de Dados em R
…
Dada a ampla gama de recursos oferecidos pelo ggplot2, não será possível abranger todas as suas funções e opções neste material. No entanto, o que será apresentado permitirá ao leitor compreender a lógica por trás do pacote, proporcionando uma maior autonomia para a continuidade nos estudos.

Nos exemplos a seguir, utilizaremos alguns conjuntos de dados que podem ser acessados clicando aqui.

9.2 Gráfico de Dispersão

Começaremos a explorar os recursos do ggplot2 com o gráfico de dispersão, ou gráfico de ponto. Esse tipo de gráfico é muito útil para verificar a tendência entre duas variáveis numéricas que podem assumir uma ampla gama de valores (variáveis quantitativas contínuas).

Para tanto, utilizaremos os dados do arquivo alunos.csv.

dados_alunos <- readr::read_csv("dados/alunos.csv")

dados_alunos
#> # A tibble: 64 × 7
#>    sexo  idade altura  peso horas_estudo media_ponderada futuro   
#>    <chr> <dbl>  <dbl> <dbl>        <dbl>           <dbl> <chr>    
#>  1 M        23   1.75    80            2             7.5 academico
#>  2 F        19   1.67    65            2             8.3 mercado  
#>  3 M        19   1.7     90            3             6.9 mercado  
#>  4 M        22   1.73    87            3             7.1 academico
#>  5 M        19   1.83    71            2             6.5 mercado  
#>  6 M        19   1.8     80            3             8.6 mercado  
#>  7 M        20   1.9     90            2             7.8 academico
#>  8 F        20   1.6     55            1             8   mercado  
#>  9 F        24   1.62    55            2             8.2 academico
#> 10 F        18   1.64    60            2             7.3 mercado  
#> # ℹ 54 more rows
…
Note que, para arredondar os valores de produção relativa em duas casas decimais, utilizamos a função round() junto à um pipe, dentro de uma função do gráfico. Portanto, os conceitos vistos no Seção 7.2 também são aplicáveis em funções do ggplot2.

9.3.7 Contagens

Também podemos fazer gráficos de barras com a função geom_bar(). Ela constrói os gráficos a partir da contagem de valores presentes em uma variável categórica. Como exemplo, utilizaremos a base de dados diamonds, presente no prórprio pacote ggplot2.

diamonds
#> # A tibble: 53,940 × 10
#>    carat cut       color clarity depth table price     x     y     z
#>    <dbl> <ord>     <ord> <ord>   <dbl> <dbl> <int> <dbl> <dbl> <dbl>
#>  1  0.23 Ideal     E     SI2      61.5    55   326  3.95  3.98  2.43
#>  2  0.21 Premium   E     SI1      59.8    61   326  3.89  3.84  2.31
#>  3  0.23 Good      E     VS1      56.9    65   327  4.05  4.07  2.31
#>  4  0.29 Premium   I     VS2      62.4    58   334  4.2   4.23  2.63
#>  5  0.31 Good      J     SI2      63.3    58   335  4.34  4.35  2.75
#>  6  0.24 Very Good J     VVS2     62.8    57   336  3.94  3.96  2.48
#>  7  0.24 Very Good I     VVS1     62.3    57   336  3.95  3.98  2.47
#>  8  0.26 Very Good H     SI1      61.9    55   337  4.07  4.11  2.53
#>  9  0.22 Fair      E     VS2      65.1    61   337  3.87  3.78  2.49
#> 10  0.23 Very Good H     VS1      59.4    61   338  4     4.05  2.39
#> # ℹ 53,930 more rows
…
Dessa forma, obtemos o gráfico de pizza mais simple possível a partir do ggplot2.

9.5 Gráfico de Linhas

Os gráficos de linhas são, comumente, utilizados para representar séries temporais, ou seja, a progressão de valores ao longo do tempo.

Para exemplificações, utilizaremos os dados do arquivo produtividade_milho.csv. Nele estão presentes valores de produtividade da cultura do milho (em toneladas por hectare) no Brasil, China, Índia e Estado Unidos entre os anos de 1961 e 2019.

prod_milho <- readr::read_csv("dados/produtividade_milho.csv")

prod_milho
#> # A tibble: 236 × 3
#>    pais     ano produtiv
#>    <chr>  <dbl>    <dbl>
#>  1 Brasil  1961     1.31
#>  2 Brasil  1962     1.30
#>  3 Brasil  1963     1.31
#>  4 Brasil  1964     1.16
#>  5 Brasil  1965     1.38
#>  6 Brasil  1966     1.31
#>  7 Brasil  1967     1.38
#>  8 Brasil  1968     1.34
#>  9 Brasil  1969     1.31
#> 10 Brasil  1970     1.44
#> # ℹ 226 more rows
…
